{
  "name": "apache",
  "version": "0.1.0",
  "author": "Alexandre Desbois",
  "summary": "Installs Apache web server",
  "license": "Apache-2.0",
  "source": "",
  "project_page": "https://forge.univ-lyon1.fr/p2307126/puppetansible",
  "issues_url": "",
  "dependencies": []
}